AS06. Gender Data Visualization
…
FINDINGS

根據視覺化結果顯示，居家托育證書人數普遍以女性為主，反映出托育職業長期受性別角色影響。值得注意的是，104
年性別差異指標出現明顯下滑，推測與 103
年底正式施行之「居家式托育服務登記制度」有關。該政策啟動後，可能吸引特定時期內大量托育人員登記，其中男性比例相對提高，導致該年性別差異指標短暫趨於平衡。此現象在後續年度迅速回落，顯示該變動具有政策導向下的一次性特徵。

wide_data %>%
  filter(year == 104) %>%
  arrange(desc((女 - 男) / (女 + 男)))

## # A tibble: 23 × 5
##     year county    男    女 ratio
##    <int> <chr>  <dbl> <dbl> <dbl>
##  1   104 屏東縣    22   687 0.938
##  2   104 嘉義市    25   620 0.922
##  3   104 嘉義縣    24   587 0.921
##  4   104 基隆市    33   773 0.918
##  5   104 宜蘭縣    46  1017 0.913
##  6   104 桃園市   186  3924 0.909
##  7   104 南投縣    48   990 0.908
##  8   104 臺中市   345  7032 0.906
##  9   104 高雄市   237  4758 0.905
## 10   104 雲林縣    42   834 0.904
## # ℹ 13 more rows
…
